{
    "sysroot_src": "/usr/lib/rustlib/src/rust/library/",
    "roots": [
        "../rust-libc/src"
    ],
    "crates": [
        {
            "root_module": "src/main.rs",
            "edition": "2021",
            "deps": [
		{
		    "crate": 1,
		    "name": "libc"
		}
	    ]
        },
        {
            "root_module": "../rust-libc/src/lib.rs",
            "edition": "2021",
            "deps": []
        }
    ]
}
